{
  "categories": [
    {
      "id": 0,
      "name": "dot"
    },
    {
      "id": 1,
      "name": "letter"
    },
    {
      "id": 2,
      "name": "other"
    }
  ],
  "info": {
    "year": 2023,
    "version": "1.0",
    "contributor": "Label Studio"
  }
}