1 0.1863807728557964 0.6036293159522639 0.2869934024505184 0.7518418712084001
1 0.41682375117813386 0.6427035350652452 0.2068803016022621 0.6683038855185779
0 0.5742224316682375 0.7868739297234869 0.0664467483506126 0.16438119764771472
1 0.7471724787935909 0.6285559729726141 0.1493873704052781 0.7181571995592784
0 0.8543826578699342 0.8596328204855902 0.06409048067860511 0.21558189855437987
