1 0.07657869934024505 0.5416495201178796 0.1531573986804901 0.8165164407747141
1 0.19344957587181902 0.5099859287677052 0.17200754005655042 0.8394220174961171
0 0.25282752120640906 0.7902417728223966 0.05042412818096139 0.15494948958596055
1 0.4189443920829406 0.4917962060771794 0.13100848256361922 0.6305770532715614
1 0.5784637134778511 0.4769749505515658 0.1437323279924601 0.700641170301735
0 0.636899151743638 0.8198820996426154 0.07304429783223369 0.21962405915227454
1 0.7610744580584354 0.528175651458231 0.13666352497643744 0.7868739297234869
1 0.9043355325164939 0.506617461602793 0.14703110273327055 0.7841791559915572
