1 0.147593896713615 0.5570653970772996 0.13556338028169013 0.7181445480394103
1 0.33685446009389675 0.5839119222376513 0.17605633802816908 0.6074026317529592
0 0.450704229976607 0.7030435755939831 0.0363849765258216 0.10738610064140701
1 0.5768779342723005 0.48239849897507114 0.11619718309859152 0.6157921708655691
0 0.6575704225352114 0.7852608609402898 0.04636150234741791 0.13087681015671493
1 0.7819835680751175 0.4723310520399393 0.13321596244131442 0.6761968524763607
1 0.8964201877934272 0.5889456457052173 0.1203051643192488 0.6476724194934869
