1 0.14137606032045238 0.47832233741753066 0.12723845428840716 0.75453664494033
1 0.2888784165881244 0.44261658546946137 0.1705937794533459 0.7828317691255923
0 0.45805843543826585 0.6184508835108787 0.04901036757775678 0.14551778152420652
1 0.6472667295004711 0.44935351979928567 0.24363807728557973 0.8555906598876954
