1 0.15032987747408108 0.543670600416827 0.18473138548539114 0.7882213165894518
0 0.27733270499528745 0.6386607504013481 0.05325164938737039 0.19941325616280145
1 0.4375589066918002 0.5719657246020894 0.21347785108388315 0.6265348926736668
0 0.614043355325165 0.5389547463859499 0.050895381715362904 0.13473868659648752
