1 0.28510838831291235 0.48573296518033743 0.22525918944392082 0.957992061701026
0 0.4436852026390198 0.6373139876013858 0.0560791705937794 0.1562968764519254
1 0.6093308199811499 0.5113333156336699 0.20169651272384534 0.9202652294540095
