1 0.14844486333647502 0.5403021332519148 0.19038642789820925 0.8919701052687472
1 0.31950989632422244 0.5086385419017403 0.17813383600376997 0.7990004115171709
0 0.4168237511781338 0.7316310682189271 0.05796418473138552 0.18593938750315267
1 0.5862393967954759 0.5632077099733176 0.2101790763430725 0.7114202652294539
