1 0.11404335532516495 0.6204716517768248 0.19604147031102734 0.7343258419508568
0 0.2525918944392083 0.720851973291208 0.06032045240339304 0.2533087308013964
1 0.40669180018850143 0.5605132482743891 0.16211121583411875 0.8461589518259413
0 0.5369934024505183 0.7181571995592784 0.07304429783223376 0.17246551884350395
1 0.6703581526861452 0.5295230383241958 0.18991517436380775 0.8246007619705034
1 0.8647502356267671 0.5140280893655998 0.1979264844486333 0.8340324700322577
