1 0.1875589066918002 0.6110399437150708 0.19886899151743634 0.7289362944869973
0 0.32822808671065035 0.7646420464350666 0.06833176248821861 0.1738129057094689
1 0.4524033930254477 0.5840922063957733 0.1847313854853912 0.5995871553543693
0 0.5638548539114043 0.802368878682083 0.0664467483506126 0.17920245317332842
