1 0.09947180231405107 0.5839123841379499 0.164906103286385 0.7181445480394103
1 0.24794600938967137 0.5360915492957747 0.16960093896713616 0.8037178469880317
0 0.32159622655837716 0.848182668227892 0.04694835680751172 0.17618032136480877
1 0.45921361502347424 0.5285409640944259 0.2001173708920188 0.8188190173907296
1 0.6458333333333333 0.5201514249818158 0.16138497652582168 0.8389539112609933
