1 0.20452403393025445 0.6366402941684034 0.2309142318567389 0.6831251410441915
0 0.35414703110273327 0.9350864849796232 0.05796418473138545 0.10779094927718987
1 0.5473609802073516 0.6312507467045438 0.22196041470311031 0.7262415207550675
