1 0.12370405278039588 0.6885146885080511 0.18708765315739873 0.5847658998287557
1 0.278746465598492 0.6736934329824373 0.1343072573044298 0.6117136371480532
0 0.36969839773798296 0.8987070395985716 0.05702167766258249 0.15629687645192547
1 0.5082469368520264 0.6581984840238414 0.14844486333647502 0.6534826299929642
1 0.7167766258246937 0.6224927320757722 0.16305372290292183 0.7087254914975242
1 0.8758246936852027 0.5719657246020894 0.15598491988689914 0.8205586013726088
