1 0.244424882629108 0.5268630562719038 0.2142018779342723 0.869156252066389
0 0.4700704225352112 0.7483468888448059 0.05046948356807512 0.14430007273689086
1 0.732394366197183 0.5184735171592938 0.26173708920187794 0.8993585928717848
0 0.8958333333333335 0.8926469615816969 0.056924882629108 0.1409442570918469
