1 0.26437323279924596 0.5955449947564747 0.15739868049010364 0.5200913302624417
1 0.39373232799246 0.6231664255087547 0.15975494816211117 0.5295230383241959
0 0.4736098020735156 0.790910161694358 0.053722902921771905 0.16168642391578486
1 0.6870876531573987 0.5888080604266502 0.1621112158341188 0.635966600735421
