1 0.20070422535211263 0.5797171526813464 0.24882629107981216 0.8305643721483834
0 0.4328051643192488 0.752541658401111 0.049882629107981274 0.10906400846392927
1 0.642018779342723 0.4513572042584144 0.28051643192488257 0.6980096541691465
0 0.7212438734086192 0.5226685506586266 0.043427230046948324 0.11913145539906111
