1 0.3447219604147031 0.6158752704729793 0.21065032987747404 0.7682494590540415
0 0.4938737040527804 0.8165164407747142 0.06126295947219603 0.18863416123508245
1 0.6889726672950047 0.485059271747355 0.22054665409990576 0.5928502210245451
0 0.7657869934024505 0.7969743386902038 0.06597549481621115 0.2304031540799936
