1 0.17436380772855797 0.6555037102919116 0.1875589066918002 0.6534826299929644
1 0.3960885956644675 0.6642617249206834 0.18426013195098964 0.635966600735421
0 0.4957587181903864 0.8960122658666418 0.04995287464655981 0.140128234060347
1 0.6764844486333648 0.5962186881894571 0.2115928369462771 0.7477997106105057
0 0.7733270499528746 0.9182441491550623 0.053722902921771974 0.12530697853473327
