1 0.23122065727699528 0.4555519738147194 0.16784037558685447 0.5788781987700854
1 0.3887910844367008 0.5822344103296708 0.16842723004694837 0.6946538385241025
0 0.5146713615023474 0.7282119949745421 0.0387323943661972 0.10067446935131912
1 0.7068661971830985 0.5050502545791179 0.22241784037558687 0.6711631290087945
