1 0.19533459000942507 0.6083451699831409 0.15315739868049014 0.7424101631466459
1 0.34071630537229025 0.6002608487873516 0.15174363807728553 0.7558840318062947
0 0.45593779453345895 0.7349995353838392 0.044769085768143244 0.17111813197753903
1 0.6272384542884072 0.5227861039943715 0.21300659754948165 0.8838857840729579
0 0.7040527803958532 0.7956257036922341 0.02921771913289362 0.0875801462877169
