1 0.15409990574929314 0.5537760019115636 0.19698397737983037 0.8380746306301522
1 0.3322337417530632 0.6096925568491058 0.1489161168708765 0.720851973291208
0 0.42742695570216777 0.7963056377852411 0.047125353440150806 0.18593938750315261
1 0.5209707822808671 0.5254808777263011 0.1305372290292177 0.6197979583438423
0 0.6658812441093309 0.7336521485178744 0.05278039585296895 0.14417039465824175
