1 0.21371347785108388 0.4891014323452496 0.22478793590951932 0.9377812587115529
1 0.3652214891611687 0.5362599726540201 0.23845428840716307 0.8623275942175198
0 0.46347785108388306 0.7336521485178744 0.059849198868991565 0.1576442633178904
1 0.6109802073515551 0.39950020575858536 0.15598491988689922 0.7585788055382245
0 0.7438737040527803 0.5793769764308986 0.07964184731385472 0.21019235109052048
