1 0.40598491988689916 0.677735593580332 0.18708765315739867 0.6224927320757722
1 0.5650329877474082 0.6447246153641926 0.13383600377002827 0.6965990097038403
0 0.6701225259189445 0.717483506126296 0.047125353440150806 0.1414756209263119
1 0.7990103675777567 0.635966600735421 0.13524976437323274 0.6790829804462969
