1 0.37252591894439213 0.5322178120561256 0.21913289349670126 0.557818162509458
0 0.4936380772855797 0.7720526741978734 0.06456173421300662 0.19132893496701214
1 0.6974552309142319 0.5834185129627908 0.22620169651272376 0.5659024837052474
