1 0.19769085768143257 0.6042936483952093 0.13336475023562674 0.720851973291208
0 0.29147031102733273 0.7269152141880499 0.06738925541941565 0.12530697853473327
1 0.5108388312912346 0.5909486134526291 0.21771913289349676 0.8181027730947419
0 0.647502356267672 0.7666631267340136 0.055607917059377954 0.16168642391578503
