1 0.09536461399194779 0.5411087416517887 0.19072617107713724 0.9177825166964226
1 0.2294600938967136 0.5050502545791179 0.2194835680751174 0.8121073861006414
0 0.36531691065743926 0.8314031940881307 0.05457746478873233 0.14933379620445678
1 0.6015258215962441 0.5813950605038684 0.3145539906103286 0.6594177742511407
