1 0.21512723845428838 0.5153754762315645 0.2313854853911404 0.9256547769178689
1 0.3579170593779453 0.5456916807157742 0.19557021677662584 0.8650223679494495
0 0.45805843543826585 0.8912964118357647 0.05843543826578703 0.18459200063718798
1 0.6128652214891611 0.5194176368294593 0.19180018850141367 0.8232533751045387
1 0.7278510838831292 0.5382810529529675 0.15504241281809597 0.8340324700322574
0 0.8129123468426013 0.7787896085276976 0.06691800188501418 0.18324461377122303
