1 0.24413145539906103 0.44464557296832646 0.1936619718309859 0.7852608609402897
0 0.39671361502347424 0.4681362824836343 0.03755868544600936 0.09731865370627531
1 0.5264084562536184 0.39934225971750364 0.1725352112676056 0.7114329167493223
0 0.7262323943661971 0.5662938901011705 0.05457746478873233 0.1426221649143688
