1 0.14773798303487276 0.5349125857880553 0.16163996229971725 0.7491470974764706
1 0.27426955702167766 0.5840922063957733 0.16305372290292172 0.6292296664055965
0 0.38312912346842604 0.7329784550848919 0.051837888784165925 0.14821255525613622
1 0.5407634307257304 0.624633285101751 0.12676720075400566 0.7507334297964983
1 0.6387841658812441 0.6905357688069984 0.1041470311027333 0.38400525679998937
0 0.7664938737040526 0.7666615665690075 0.0391140433553251 0.14821255525613636
