1 0.15692742695570217 0.5268282645922662 0.2007540056550424 0.808432119578925
1 0.31950989632422244 0.6352929073024385 0.15551366635249764 0.6642617249206834
0 0.41965127238454286 0.8380715103001398 0.047596606974552313 0.13743346032841713
1 0.5697455230914231 0.53895474638595 0.1866163996229971 0.7518418712084002
0 0.7097078228086713 0.8043871506840192 0.05655042412818105 0.17785506630736353
