1 0.11333647502356267 0.5733131114680543 0.18991517436380773 0.8043899589810303
0 0.2177191328934967 0.8380746306301521 0.07163053722902923 0.1724655188435038
1 0.39726672950047126 0.6029556225192815 0.18850141376060323 0.753189258074365
