1 0.08741753063147974 0.5564707756434933 0.1710650329877474 0.8488537255578712
1 0.2434024505183789 0.5881343669936678 0.17483506126295942 0.7801369953936624
0 0.36710650329877476 0.8603065139185725 0.06126295947219603 0.1926763218329772
1 0.4592365692742696 0.5854395932617381 0.08906691800188504 0.7639683530020841
1 0.5688030160226202 0.6339455204364737 0.13572101790763427 0.6184505714778775
1 0.7530631479736098 0.6049767028182288 0.20169651272384542 0.6871673016420863
1 0.9088124410933083 0.598913461921387 0.13430725730442986 0.7181571995592784
