1 0.10838831291234684 0.5894817538596329 0.15551366635249764 0.7531892580743651
1 0.30301602262016963 0.5477127610147217 0.23185673892554193 0.8367272437641873
0 0.4078699340245052 0.9007281198975189 0.06079170593779452 0.19806586929683648
1 0.7196041470311028 0.5369346021860062 0.21300659754948156 0.9121809082582203
