1 0.17811032863849768 0.49666071546650803 0.1637323943661972 0.8792236990015211
1 0.3321596244131456 0.5184735171592939 0.1361502347417841 0.5939793691727833
0 0.46156103286384975 0.7517027044898499 0.08274647887323944 0.248330357733254
1 0.659330985915493 0.5696497057462144 0.12147887323943657 0.7164666402168883
0 0.782863857164449 0.8112683002178668 0.0727699530516432 0.20638266217020443
