1 0.1904342482530993 0.5805565025071489 0.1426056338028169 0.8020399391655095
1 0.30956572769953056 0.5855898300601734 0.1602112676056338 0.8053957548105537
0 0.39583333333333326 0.8406318190835154 0.049882629107981205 0.13423262580175888
1 0.5595657276995305 0.5637770283673875 0.19894366197183103 0.8389539112609933
