1 0.18378887841658811 0.5787026589319137 0.1470311027332705 0.8043899589810303
1 0.3289349670122526 0.5800500457978786 0.14043355325164938 0.7963056377852409
0 0.4512252591894439 0.7693569643669399 0.044769085768143244 0.13204391286455774
1 0.6557492931196984 0.5699446443031421 0.1672950047125353 0.8030425721150654
1 0.7462299717247879 0.6615669511887535 0.13430725730442986 0.4823644980154252
0 0.8367106503298775 0.7922634771873465 0.06550424128180964 0.19132893496701228
