1 0.22549481621112158 0.5025753010048983 0.1880301602262017 0.6656091117866481
1 0.3685202639019793 0.48169080458244273 0.15834118755890672 0.7046833308996295
0 0.5186145146088595 0.7107465717964715 0.061734213006597614 0.16303381078174994
1 0.6204052780395852 0.5416495201178797 0.13713477851083888 0.5766815786329664
0 0.7467012252591894 0.8320113897333102 0.10414703110273323 0.19806586929683676
