1 0.09653755868544601 0.634249156913311 0.15199530516431925 0.6879422072340146
1 0.21713615023474175 0.6728410368313166 0.17136150234741782 0.5805561065926074
0 0.36355633802816906 0.7944893539641606 0.07570422535211264 0.233229187330556
1 0.5803990610328639 0.5998520465516103 0.2875586854460094 0.632571249090789
