1 0.1437793427230047 0.5537095814322555 0.1643192488262911 0.6610956820736626
1 0.29958920187793425 0.5780392448588243 0.1625586854460094 0.609080539575481
0 0.4330985915492958 0.7349236262646301 0.049295774647887286 0.1476558883819348
1 0.6396713615023475 0.5562264431660385 0.19835680751173712 0.629215433445745
