1 0.19745523091423184 0.5301967317571783 0.2082940622054665 0.6992937834357701
1 0.39231856738925536 0.5645550968392825 0.17295004712535342 0.6117136371480533
0 0.5501885014137606 0.8198849079396262 0.07964184731385479 0.15225471585403086
1 0.772855796418473 0.6123873305810356 0.21112158341187567 0.7262415207550674
0 0.8772384542884072 0.8030425721150656 0.08341187558906697 0.16168642391578503
