1 0.1285211267605634 0.5402863188520797 0.14084507042253525 0.6577398664286187
1 0.23503521126760563 0.5511927196984726 0.136737089201878 0.5889456457052173
0 0.3802816901408451 0.6141142630430472 0.046948356807511755 0.12416517886662697
1 0.544894366197183 0.502533392845335 0.12617370892018775 0.6057247239304373
0 0.7001173625679291 0.7550588500636786 0.043427230046948324 0.11745354757653914
