1 0.15009425070688032 0.46350108189191697 0.14844486333647505 0.8326850831662926
1 0.30560791705937795 0.48842773891226715 0.18520263901979267 0.7855265428575221
0 0.42954759660697456 0.5766815786329665 0.059849198868991496 0.23714008840981804
1 0.6922714420358154 0.45137460009823305 0.20452403393025448 0.8434641780940116
