1 0.1543355325164939 0.6090188634161234 0.19651272384542884 0.7599261924041895
0 0.3041941564561734 0.9094886307903005 0.05419415645617342 0.15360210271999578
1 0.474081055607917 0.609692556849106 0.175306314797361 0.6858199147761214
1 0.5848256361922715 0.662240644621736 0.17436380772855797 0.6588721774568239
0 0.6927426955702168 0.8973596527326066 0.05937794533459012 0.1266543654006982
