1 0.2622525918944392 0.6474193890961223 0.20216776625824695 0.6885146885080511
0 0.3854853911404335 0.867043448248397 0.06503298774740812 0.14955994212210114
1 0.5103675777568332 0.6083451699831409 0.1451460885956645 0.6939042359719104
1 0.6621112158341187 0.5106596222006876 0.1677662582469369 0.679082980446297
