1 0.10123239436619716 0.6359270647358329 0.1778169014084507 0.6845863915889706
1 0.2552816901408451 0.6166311247768301 0.153755868544601 0.6459945116709649
0 0.33744131455399057 0.881740560735304 0.06220657276995304 0.15268961184950072
1 0.47564553990610325 0.5780392448588244 0.20950704225352113 0.7063991932817564
0 0.5507628821262576 0.7928116440989096 0.045187793427230005 0.15268961184950086
1 0.7209506848024761 0.5830729683263903 0.1989436619718309 0.7298899027970641
1 0.9043427230046948 0.5528706275209946 0.18661971830985905 0.7533806123123721
