1 0.18991517436380775 0.5362599726540201 0.17907634307257303 0.7221993601571728
1 0.35815268614514617 0.5382810529529677 0.16116870876531575 0.7397153894147165
0 0.5329877474081056 0.5719641644370832 0.06974552309142325 0.12261220480280358
1 0.6578699340245052 0.44935351979928584 0.14797360980207352 0.6615669511887536
0 0.7945334590009426 0.5093150436317339 0.0678605089538172 0.16438119764771478
