1 0.15032987747408105 0.47225909652068865 0.24976437323279924 0.8879279446708526
0 0.25070688030160226 0.64066778921524 0.07822808671065033 0.2357927015438532
1 0.37299717247879355 0.4843855783143725 0.1974552309142318 0.9229600031859393
0 0.5131950989632422 0.8064110392799776 0.07634307257304428 0.26543521259508024
