1 0.17436380772855795 0.5308704251901607 0.22054665409990573 0.8811910103410281
1 0.4222431668237512 0.5369336660870025 0.25353440150801126 0.8906227184027823
0 0.5784637134778511 0.8279692291354155 0.045711592836946265 0.11991743107087402
1 0.6689443920829405 0.6460720022301575 0.15409990574929303 0.7019885571676998
1 0.8209236569274271 0.618570044204909 0.17342130065975497 0.7628599115901821
