1 0.22681924882629104 0.5025333928453349 0.19659624413145538 0.7567364279574158
0 0.36502347417840375 0.8003620313429878 0.041079812206572794 0.12416517886662704
1 0.49735915492957744 0.505889208490379 0.1660798122065728 0.7131108245718444
0 0.6164906103286385 0.7760323679164187 0.05340375586854449 0.17618032136480863
