1 0.2567488262910798 0.45135720425841447 0.20129107981220656 0.6711631290087948
0 0.42811033788748626 0.6661298674415272 0.09565727699530513 0.18792567612246244
1 0.5096830985915493 0.4815595450638102 0.07687793427230048 0.46645837466111234
1 0.6561032984086616 0.5377699190185952 0.2042253521126761 0.4043757852277987
