1 0.17342130065975497 0.5645550968392825 0.18944392082940623 0.8165164407747142
0 0.3414231856738925 0.8576117401866429 0.07398680490103672 0.23848747527578282
1 0.5139019792648445 0.6238401189417371 0.15315739868049014 0.6952516228378753
1 0.6467954759660697 0.6137347174470006 0.13524976437323274 0.6373139876013859
0 0.7811027332704995 0.8495246106938426 0.06456173421300662 0.26004566513122085
