1 0.11091549295774646 0.5268630562719037 0.1748826291079812 0.7047212854592343
1 0.2658450704225352 0.5620991205448655 0.1725352112676056 0.6946538385241025
1 0.369424882629108 0.5805561065926075 0.12852112676056338 0.7819050452952458
1 0.4823943661971831 0.5788781987700854 0.13145539906103282 0.624181709978179
