1 0.1029929577464789 0.5302188719169477 0.1684272300469484 0.8926469615816969
1 0.2634976525821596 0.5788781987700853 0.18779342723004697 0.8087515704555974
0 0.3726525821596244 0.8188190173907295 0.05633802816901408 0.15101170402697875
1 0.4926643192488263 0.6107584473980032 0.1343896713615024 0.5805561065926075
0 0.6247065727699531 0.7676428288038089 0.053403755868544706 0.15268961184950086
1 0.7247652582159624 0.6376049725583549 0.1455399061032864 0.624181709978179
1 0.8735328638497651 0.6711631290087948 0.16373239436619727 0.6275375256232231
