1 0.1336003770028275 0.5147017827985823 0.2012252591894439 0.9162230688561149
0 0.310320452403393 0.8003477983831356 0.09095193213949102 0.22097144601823956
1 0.49599434495758715 0.5052700747368281 0.21442035815268612 0.8758014628771685
0 0.6533930254476908 0.7336521485178744 0.06927426955702166 0.16033903704981994
