1 0.09741860460227646 0.5536930503207036 0.18427077201610442 0.8926138993585928
1 0.2658450704225352 0.493304899821464 0.181924882629108 0.8121073861006416
0 0.5525234741784038 0.503372346756596 0.05927230046948353 0.27182106724856175
1 0.750293427230047 0.47233105203993925 0.14260563380281682 0.7802271374727238
1 0.9002347417840375 0.501694438934074 0.1408450704225352 0.6543840507835748
