1 0.16376060320452404 0.5396284398189324 0.24740810556079168 0.8690645285473443
1 0.36427898209236576 0.5834185129627908 0.16965127238454294 0.6305770532715614
0 0.4858623939679548 0.8865805578048876 0.06220546654099905 0.14551778152420666
1 0.756833176248822 0.6191242649108601 0.2082940622054666 0.6777355935803321
0 0.8751178133836004 0.7909160903213817 0.050895381715362904 0.13743346032841727
