1 0.1238262910798122 0.5688107518349534 0.2136150234741784 0.7718375983601138
1 0.29518779342723006 0.5570653970772995 0.17488262910798127 0.6745189446538385
0 0.3788145539906103 0.7709986444488528 0.07100938967136144 0.20973847781524824
1 0.5052816901408451 0.5713276135687364 0.15023474178403753 0.6426386960259208
1 0.6757629255965036 0.5679716659521786 0.17312206572769948 0.7500247966673279
