1 0.21795475966069744 0.5733131114680543 0.1983977379830349 0.7504944843424353
0 0.3897266729500471 0.6891883819410335 0.049010367577756855 0.15764426331789025
1 0.5749293119698398 0.5396284398189324 0.14231856738925544 0.6965990097038403
1 0.7455230914231856 0.5564707756434933 0.20735155513666356 0.6656091117866481
0 0.9380301602262017 0.6224927320757722 0.05513666352497651 0.16707597137964447
