1 0.16402582159624413 0.44380661905706537 0.232981220657277 0.7902945844078556
1 0.3415493216718158 0.467297724486915 0.17136150234741784 0.6896201150565366
0 0.4553990610328638 0.7609309335706931 0.05985915492957744 0.14597798055941283
1 0.6839788732394366 0.497499669377769 0.2071596244131456 0.7298899027970642
0 0.8227699576761376 0.7030432456651985 0.06220657276995311 0.2047047543476824
