1 0.17954759660697456 0.5813974326638435 0.2092365692742696 0.5941976078905098
0 0.30136663524976437 0.7828317691255923 0.04948162111215833 0.13204391286455774
1 0.5051837888784165 0.6043030093852464 0.2309142318567389 0.6373139876013858
0 0.6439679547596606 0.8461589518259413 0.07869934024505185 0.22097144601823956
