1 0.1347785108388313 0.557818162509458 0.2186616399622997 0.8407694043620818
1 0.27639019792648445 0.5719657246020894 0.16540999057492933 0.8259481488364684
0 0.46300659754948165 0.8138216670427844 0.043826578699340216 0.14551778152420652
1 0.6208765315739868 0.5510812281796339 0.17200754005655042 0.7087254914975243
0 0.7754476908576814 0.8259481488364682 0.07115928369462765 0.3422362639550782
