1 0.19274269557021678 0.4870803520463023 0.25259189443920826 0.7936108640533114
0 0.30160226201696516 0.8171901342076966 0.05655042412818098 0.15764426331789025
1 0.4516965127238454 0.5180674416664832 0.23609802073515554 0.8097795064448898
0 0.612158341187559 0.7626209661361192 0.06786050895381728 0.16168642391578486
