1 0.11050895381715362 0.5429969069838446 0.17860508953817153 0.8892753315368175
1 0.27356267672007545 0.5012279141389334 0.16918001885014142 0.7518418712084002
0 0.36310084825636196 0.7006411703017349 0.05042412818096139 0.14282300779227683
1 0.5242695570216775 0.6063240896841936 0.18708765315739861 0.6979463965698051
