1 0.19131455399061037 0.4790426833300272 0.26525821596244137 0.8003620313429876
0 0.27816893546810456 0.7173170756498554 0.056338028169014044 0.18624776829994055
1 0.477112676056338 0.44800138861337047 0.2922535211267605 0.8490213581961252
0 0.571009280533297 0.7105887499632638 0.04812206572769966 0.14933379620445691
1 0.6980633802816901 0.4907880380876811 0.15082159624413144 0.7097550089268004
1 0.8441901408450704 0.47065314421741733 0.14025821596244142 0.6761968524763607
0 0.9193075098872913 0.7567368898577144 0.04636150234741777 0.14430007273689086
