1 0.08714788732394366 0.5772133996024268 0.1742957746478873 0.8255568659905442
1 0.23943661971830985 0.5864287839714344 0.2276995305164319 0.7768713218276798
0 0.3438967136150235 0.8037178469880317 0.08450704225352115 0.3053792236990016
1 0.6120892018779344 0.5746834292137805 0.44248826291079824 0.8104294782781196
