1 0.17517605633802816 0.5654549361899095 0.2623239436619718 0.8121073861006416
0 0.284037558685446 0.8590888051312571 0.07511737089201873 0.21812801692785824
1 0.5061619718309859 0.607402631752959 0.1860328638497652 0.7215003636844541
1 0.6021126760563381 0.7089160550155394 0.17840375586854462 0.5251851484493819
0 0.7632042336762024 0.8020399391655095 0.08626760563380273 0.1845698604774185
