1 0.11310084825636191 0.4547430672631453 0.20735155513666348 0.7720526741978734
1 0.3298774740810556 0.4601326147270048 0.18378887841658811 0.7397153894147164
0 0.5633836003770029 0.7936108640533113 0.06267672007540057 0.1724655188435041
1 0.8058435438265786 0.4507009066652507 0.20358152686145148 0.6831251410441916
