1 0.4691901408450704 0.6149532169543082 0.13438967136150232 0.6627735898961847
0 0.5487089201877935 0.8649614825100841 0.05985915492957744 0.1996710308801164
1 0.6845657276995305 0.5973351848178272 0.17546948356807518 0.7315678106195861
0 0.8213028169014084 0.8960027772267409 0.10739436619718319 0.16779078225219862
