1 0.20475966069745524 0.6258611992406844 0.12111215834118756 0.6939042359719106
1 0.3520263901979264 0.5813974326638435 0.13195098963242224 0.5941976078905098
0 0.4827992459943449 0.7895696395544205 0.06079170593779452 0.2883407893164832
1 0.6413760603204524 0.6292296664055965 0.15174363807728553 0.6952516228378753
1 0.8138548539114043 0.6299033598385789 0.1545711592836946 0.7127676520954188
