1 0.13996478873239437 0.4496792964358924 0.19072769953051644 0.862444620776301
1 0.3215962441314554 0.4354170799444556 0.17018779342723003 0.8574108973087352
0 0.4536384930280879 0.7617698874819542 0.05985915492957744 0.19799312305759442
1 0.642899061032864 0.40353683131653784 0.20129107981220656 0.766803874892548
1 0.760856807511737 0.500855485022813 0.1555164319248827 0.5117618858692058
0 0.8794014121502994 0.729051146843074 0.04636150234741777 0.1560454274945448
