1 0.1788407163053723 0.5382810529529675 0.20028275212064092 0.8636749810834848
0 0.293119698397738 0.8185375210736615 0.05749293119698397 0.13878084719438205
1 0.517200754005655 0.5908291407255976 0.18897266729500464 0.7882213165894518
0 0.6639962299717248 0.7370206156827865 0.0433553251649387 0.11048572300911971
