1 0.10768779342723005 0.5117618858692059 0.15199530516431922 0.5235072406268598
1 0.25880281690140844 0.5587433048998216 0.12206572769953049 0.49666071546650814
0 0.39377934272300463 0.6845863915889706 0.06103286384976521 0.12080936322158302
1 0.540199530516432 0.5738444753025194 0.16021126760563384 0.496660715466508
