1 0.25058685446009393 0.5277020101831648 0.26173708920187794 0.7768713218276798
0 0.41872065727699537 0.7307288567083252 0.045187793427230005 0.2265175560404682
1 0.6710680751173709 0.5478369040534287 0.22946009389671354 0.5620991205448655
